How to parallelize do computation in dplyr
…
    OK, this is the end of the analysis, otherwise the article becomes a tutorial on analyzing the competition data. Based on the results above, the performances of the well-known methods are pretty decent in my opinion. Next is how to calculate them in 2000 shops.

    A workable solution

    ets is a fast algorithm, and its performance is quite good. Therefore, let’s assume we want to apply ets to the whole dataset. The easiest way is to use some functions from dplyr. summarise is a good candidate, but it only able to capture functions with only one return value, such as mean and median:

tc2017 %>% group_by(shop_id) %>%
  summarise(mean(nb_pay),median(nb_pay)) 

## # A tibble: 2,000 × 3
##    shop_id `mean(nb_pay)` `median(nb_pay)`
##      <int>          <dbl>            <dbl>
## 1        1      239.50646              228
## 2        2      118.87538               92
## 3        3       76.97794               74
## 4        4      129.58095              116
## 5        5      155.71782              158
## 6        6       62.11765               60
## 7        7      144.79917              139
## 8        8       81.63043               76
## 9        9      182.61035              171
## 10      10       45.39024               43
## # ... with 1,990 more rows

    So, we need a general version of summarise, and what we get is do:

      This is a general purpose complement to the specialised manipulation functions filter, select, mutate, summarise and arrange. You can use do to perform arbitrary computation, returning either a data frame or arbitrary objects which will be stored in a list. This is particularly useful when working with models: you can fit models per group with do and then flexibly extract components with either another do or summarise.

    Here is where most people get stuck, because the first example of this function is something like:

head3

## Source: local data frame [6,000 x 4]
## Groups: shop_id [2,000]
## 
##    shop_id time_stamp date_week nb_pay
##      <int>     <date>    <fctr>  <int>
## 1        1 2015-10-10  Saturday    188
## 2        1 2015-10-11    Sunday    272
## 3        1 2015-10-12    Monday    257
## 4        2 2015-11-25 Wednesday     55
## 5        2 2015-11-26  Thursday    175
## 6        2 2015-11-27    Friday    186
## 7        3 2016-06-18  Saturday     71
## 8        3 2016-06-19    Sunday     45
## 9        3 2016-06-20    Monday     62
## 10       4 2016-07-19   Tuesday     74
## # ... with 5,990 more rows

    Above function extracted the first three values appearing for each shop. The data structure what we get is the same as the original one. Pretty good? No, what we need is You can use do to perform arbitrary computation, returning either a data frame or arbitrary objects which will be stored in a list. And the first example absolutely sent us to a wrong direction. Actually, the later examples did the right thing. The trick is to assign the return value to a variable:

head3

## Source: local data frame [2,000 x 2]
## Groups: <by row>
## 
## # A tibble: 2,000 × 2
##    shop_id     head3
## *    <int>    <list>
## 1        1 <int [3]>
## 2        2 <int [3]>
## 3        3 <int [3]>
## 4        4 <int [3]>
## 5        5 <int [3]>
## 6        6 <int [3]>
## 7        7 <int [3]>
## 8        8 <int [3]>
## 9        9 <int [3]>
## 10      10 <int [3]>
## # ... with 1,990 more rows
…
